^C:\USERS\LENIK\SOURCE\REPOS\POINT3D\POINT3D\DEBUG\MAIN.OBJ|C:\USERS\LENIK\SOURCE\REPOS\POINT3D\POINT3D\DEBUG\SEGMENT3D.OBJ|C:\USERS\LENIK\SOURCE\REPOS\POINT3D\POINT3D\DEBUG\VECTOR3D.OBJ
/OUT:"C:\USERS\LENIK\SOURCE\REPOS\POINT3D\DEBUG\POINT3D.EXE" /INCREMENTAL /ILK:"DEBUG\POINT3D.ILK" /NOLOGO KERNEL32.LIB USER32.LIB GDI32.LIB WINSPOOL.LIB COMDLG32.LIB ADVAPI32.LIB SHELL32.LIB OLE32.LIB OLEAUT32.LIB UUID.LIB ODBC32.LIB ODBCCP32.LIB /MANIFEST /MANIFESTUAC:"level='asInvoker' uiAccess='false'" /manifest:embed /DEBUG /PDB:"C:\USERS\LENIK\SOURCE\REPOS\POINT3D\DEBUG\POINT3D.PDB" /SUBSYSTEM:CONSOLE /TLBID:1 /DYNAMICBASE /NXCOMPAT /IMPLIB:"C:\USERS\LENIK\SOURCE\REPOS\POINT3D\DEBUG\POINT3D.LIB" /MACHINE:X86 DEBUG\MAIN.OBJ
DEBUG\SEGMENT3D.OBJ
DEBUG\VECTOR3D.OBJ
